<svg xmlns="http://www.w3.org/2000/svg" width="107.233" height="107.236" viewBox="0 0 107.233 107.236">
  <g id="Сгруппировать_1" data-name="Сгруппировать 1" transform="translate(-95.96 -581.385)">
    <rect id="Прямоугольник_5" data-name="Прямоугольник 5" width="3.831" height="3.833" transform="translate(157.291 602.99)" fill="#fff"/>
    <rect id="Прямоугольник_6" data-name="Прямоугольник 6" width="3.831" height="3.833" transform="translate(165.001 602.99)" fill="#fff"/>
    <rect id="Прямоугольник_7" data-name="Прямоугольник 7" width="3.831" height="3.833" transform="translate(172.201 602.99)" fill="#fff"/>
    <rect id="Прямоугольник_8" data-name="Прямоугольник 8" width="3.831" height="3.831" transform="translate(137.456 662.954)" fill="#fff"/>
    <rect id="Прямоугольник_9" data-name="Прямоугольник 9" width="3.831" height="3.831" transform="translate(129.744 662.954)" fill="#fff"/>
    <rect id="Прямоугольник_10" data-name="Прямоугольник 10" width="3.833" height="3.831" transform="translate(122.546 662.954)" fill="#fff"/>
    <path id="Контур_1" data-name="Контур 1" d="M196.188,617.481h-6.363V610.14h6.363v1.921h-4.444v3.5h4.444Z" fill="#fff"/>
    <path id="Контур_2" data-name="Контур 2" d="M108.909,682.041H105.57V661.473h3.339Zm4.882-.033h-3.34V650.369h-8.362V635.818l17.808.073-.051,33.28,31.3.061.14-20.331,3.339.024-.163,23.68-13.593-.125-.051,5.77,12.634.118-.03,3.339-15.974-.145.081-9.051h-3.746v9.177H120.667v-9.177H116.5l.049-33.353h-2.763Zm10.215-3.659h6.436v-5.533h-6.436ZM105.429,647.03h5.02v-7.872h-5.02Zm64.705,34.478H156.569V663.389h20.705V653.112h7.254v-4.946h12.1v3.34h-8.76v1.677h8.575v13.7H184.1V656.452h-3.487v10.277H159.909v2.71h36.718v3.339H170.134Zm-10.225-3.34h6.885v-5.39l-6.885.021Zm27.958-14.622H193.1v-7.024h-5.236Zm-39.105,3.241h-3.34V639.153h-4.555v21h-3.339V639.165h-4.185v20.988H130V639.165h-3.9v20.9h-3.34V635.825l26-.012Zm10.867-4.95H156.29v-20.1h24.237v8.478h-3.34v-5.139H159.629Zm13.7-.317H162v-3.34h7.991v-5.838H162V649h11.33Zm-18.623-13.769h-3.34V635.813h30.578v3.34H154.707Zm32.231-.818H183.6V635.905h13.17v3.34h-9.831Zm-24.864-12.968H149.816V602.987h3.34v27.639h4.556v-21h3.339v20.988h4.185V609.626h3.34v20.988h3.9v-20.9h3.339v24.24Zm-14.864,0H116.63v-3.339h27.241v-8.6h3.339Zm49.276-.005H178.3l-.068-.145.176-33.21-30.98-.063-.14,20.333-3.339-.024.163-23.682,13.593.125.052-5.768-12.635-.117.03-3.34,15.975.146-.081,9.051h3.745v-9.181h13.115v9.181h3.86l-.177,33.355h3.2l0-42.853h3.339v31.639h8.362Zm-8.359-3.339h5.019v-7.874h-5.019ZM168.133,596.96h6.436v-5.535h-6.436Zm-53.154,36.911h-13.17v-3.339h9.83v-7.689h3.34Zm27.307-5.831H118.048v-8.48h3.34v5.14h17.558V607.939h3.34Zm-28.236-6.43h-12.1v-3.34h8.762V616.6h-8.575V602.89h12.339v10.434h3.487V603.048H138.67v-2.713H101.948V597h26.5v-8.727H142.01v18.118H121.3v10.277H114.05Zm-8.575-8.354h5.235V606.23h-5.235ZM131.783,597l6.887-.022v-5.366h-6.887Zm4.795,23.778H125.249V608.259h11.329V611.6h-7.99v5.836h7.99Zm56.44-12.454h-3.339V587.752h3.339Z" fill="#fff"/>
    <path id="Контур_3" data-name="Контур 3" d="M108.761,659.653H102.4v-1.921h4.442v-3.5H102.4v-1.921h6.361Z" fill="#fff"/>
    <rect id="Прямоугольник_11" data-name="Прямоугольник 11" width="2.833" height="4.92" transform="translate(189.03 657.575)" fill="#fff"/>
    <rect id="Прямоугольник_12" data-name="Прямоугольник 12" width="4.92" height="3.521" transform="translate(160.809 673.745)" fill="#fff"/>
    <rect id="Прямоугольник_13" data-name="Прямоугольник 13" width="3.521" height="6.577" transform="translate(106.128 639.851)" fill="#fff"/>
    <rect id="Прямоугольник_14" data-name="Прямоугольник 14" width="3.521" height="4.598" transform="translate(106.4 607.465)" fill="#fff"/>
    <rect id="Прямоугольник_15" data-name="Прямоугольник 15" width="2.833" height="4.92" transform="translate(189.179 624.174)" fill="#fff"/>
    <rect id="Прямоугольник_16" data-name="Прямоугольник 16" width="4.456" height="3.521" transform="translate(169.236 592.442)" fill="#fff"/>
    <rect id="Прямоугольник_17" data-name="Прямоугольник 17" width="2.754" height="3.172" transform="translate(164.876 653.621)" fill="#fff"/>
    <rect id="Прямоугольник_18" data-name="Прямоугольник 18" width="2.754" height="3.172" transform="translate(130.641 612.893)" fill="#fff"/>
    <path id="Контур_4" data-name="Контур 4" d="M203.193,688.621H95.96V581.385H203.193Zm-106.4-.836H202.359V582.221H96.793Z" fill="#fff"/>
  </g>
</svg>
