<svg xmlns="http://www.w3.org/2000/svg" width="206.884" height="166.662" viewBox="0 0 206.884 166.662">
  <g id="Group_1337" data-name="Group 1337" transform="translate(-1693 -457.478)">
    <g id="Group_1341" data-name="Group 1341" transform="translate(1693 457.478)">
      <g id="Group_1337-2" data-name="Group 1337" transform="translate(47.499 0)">
        <rect id="Rectangle_641" data-name="Rectangle 641" width="3.824" height="3.827" transform="translate(61.222 21.565)" fill="#fff"/>
        <rect id="Rectangle_642" data-name="Rectangle 642" width="3.824" height="3.827" transform="translate(68.918 21.565)" fill="#fff"/>
        <rect id="Rectangle_643" data-name="Rectangle 643" width="3.824" height="3.827" transform="translate(76.106 21.565)" fill="#fff"/>
        <rect id="Rectangle_644" data-name="Rectangle 644" width="3.824" height="3.824" transform="translate(41.422 81.424)" fill="#fff"/>
        <rect id="Rectangle_645" data-name="Rectangle 645" width="3.824" height="3.824" transform="translate(33.724 81.424)" fill="#fff"/>
        <rect id="Rectangle_646" data-name="Rectangle 646" width="3.827" height="3.824" transform="translate(26.539 81.424)" fill="#fff"/>
        <path id="Path_810" data-name="Path 810" d="M135.338,76.243h-6.351V68.915h6.351v1.918H130.9v3.494h4.437Z" transform="translate(-35.287 -40.212)" fill="#fff"/>
        <path id="Path_811" data-name="Path 811" d="M87.071,150.573H83.737V130.042h3.333Zm4.873-.032H88.611V118.956H80.264V104.431l17.774.072-.05,33.222,31.244.063.14-20.3,3.333.023-.161,23.64-13.569-.125-.05,5.761,12.612.118-.032,3.333-15.945-.145.081-9.038H111.9v9.164H98.807v-9.164H94.649l.05-33.293H91.94Zm10.2-3.652h6.426v-5.526H102.14ZM83.6,115.621h5.01v-7.859H83.6Zm64.589,34.421h-13.54V131.955h20.669V121.7h7.24V116.76h12.079v3.333h-8.744v1.673h8.56v13.678H162.131V125.03h-3.482v10.257H137.981v2.706h36.653v3.335H148.187Zm-10.206-3.335h6.872v-5.379l-6.872.022Zm27.909-14.6h5.226V125.1h-5.226Zm-39.038,3.238H123.52V107.759h-4.547v20.965h-3.333V107.77h-4.178v20.954h-3.333V107.77h-3.9v20.866H100.9v-24.2l25.957-.011ZM137.7,130.4h-3.333V110.339h24.194V118.8H155.23v-5.13H137.7Zm13.677-.316h-11.31v-3.333h7.977v-5.829h-7.977v-3.333h11.31Zm-18.591-13.745h-3.333V104.426h30.525v3.333H132.787Zm32.175-.816h-3.333V104.517h13.148v3.333h-9.815Zm-24.82-12.945H127.905V71.66h3.335V99.25h4.547V78.285h3.333V99.235H143.3V78.285h3.333V99.235h3.9V78.371h3.333v24.2Zm-14.837,0H94.777V99.25H121.97V90.665h3.335Zm49.188-.005H156.341l-.068-.145.176-33.15-30.925-.065-.14,20.3-3.335-.025.163-23.637,13.571.124.05-5.761L123.222,60.1l.03-3.333,15.947.143-.081,9.036h3.738V56.783h13.092v9.164H159.8l-.178,33.3h3.191l0-42.78h3.335V88.051h8.346Zm-8.344-3.333h5.011v-7.86h-5.011Zm-19.959-33.6h6.426V60.117H146.19ZM93.129,102.489H79.983V99.156H89.8V91.477h3.333Zm27.26-5.824h-24.2V88.2h3.335v5.133h17.526V76.6h3.335ZM92.2,90.247H80.123V86.914h8.746V85.241H80.308V71.563H92.625V81.978h3.482V71.717h20.671V69.011H80.123V65.678h26.45V56.966h13.54V75.05H99.44V85.311H92.2Zm-8.561-8.339h5.226V74.9H83.642Zm26.263-16.23,6.872-.022V60.3h-6.872Zm4.785,23.737h-11.31V76.92h11.31v3.333h-7.977v5.829h7.977Zm56.342-12.436H167.7V56.45h3.333Z" transform="translate(-74.145 -50.096)" fill="#fff"/>
        <path id="Path_812" data-name="Path 812" d="M86.662,99.723h-6.35V97.806h4.434V94.312H80.312V92.394h6.35Z" transform="translate(-73.884 -21.593)" fill="#fff"/>
        <rect id="Rectangle_647" data-name="Rectangle 647" width="2.827" height="4.911" transform="translate(92.906 76.055)" fill="#fff"/>
        <rect id="Rectangle_648" data-name="Rectangle 648" width="4.912" height="3.514" transform="translate(64.735 92.196)" fill="#fff"/>
        <rect id="Rectangle_649" data-name="Rectangle 649" width="3.515" height="6.566" transform="translate(10.15 58.362)" fill="#fff"/>
        <rect id="Rectangle_650" data-name="Rectangle 650" width="3.515" height="4.59" transform="translate(10.42 26.033)" fill="#fff"/>
        <rect id="Rectangle_651" data-name="Rectangle 651" width="2.828" height="4.911" transform="translate(93.054 42.712)" fill="#fff"/>
        <rect id="Rectangle_652" data-name="Rectangle 652" width="4.448" height="3.515" transform="translate(73.147 11.036)" fill="#fff"/>
        <rect id="Rectangle_653" data-name="Rectangle 653" width="2.749" height="3.167" transform="translate(68.794 72.107)" fill="#fff"/>
        <rect id="Rectangle_654" data-name="Rectangle 654" width="2.749" height="3.167" transform="translate(34.619 31.451)" fill="#fff"/>
        <path id="Path_813" data-name="Path 813" d="M183.772,159.953H76.727V52.906H183.772Zm-106.215-.834H182.938V53.74H77.557Z" transform="translate(-76.727 -52.906)" fill="#fff"/>
      </g>
      <g id="Group_1340" data-name="Group 1340" transform="translate(0 120.605)">
        <g id="Group_1339" data-name="Group 1339">
          <g id="Group_1338" data-name="Group 1338">
            <path id="Path_814" data-name="Path 814" d="M63.752,146.157h-1.8a2.455,2.455,0,0,1-1.366-.36,5.215,5.215,0,0,1-1.651,3.321,5.452,5.452,0,0,1-3.685,1.214c-3.34,0-5.011-1.972-5.011-5.94v-3.3h1.121v3.227a6.832,6.832,0,0,0,1.063,3.988,3.555,3.555,0,0,0,3.095,1.52,3.466,3.466,0,0,0,2.808-1.483,5.975,5.975,0,0,0,1.18-3.853v-7.9l-.323-2.334,1.442-.362v9.379c0,1.309.59,1.974,1.766,1.974h1.366Z" transform="translate(-50.235 -109.293)" fill="#fff"/>
            <rect id="Rectangle_655" data-name="Rectangle 655" width="2.58" height="0.93" transform="translate(12.985 35.932)" fill="#fff"/>
            <rect id="Rectangle_656" data-name="Rectangle 656" width="2.581" height="0.93" transform="translate(14.959 35.932)" fill="#fff"/>
            <rect id="Rectangle_657" data-name="Rectangle 657" width="2.583" height="0.93" transform="translate(16.933 35.932)" fill="#fff"/>
            <rect id="Rectangle_658" data-name="Rectangle 658" width="2.581" height="0.93" transform="translate(18.909 35.932)" fill="#fff"/>
            <rect id="Rectangle_659" data-name="Rectangle 659" width="2.581" height="0.93" transform="translate(20.883 35.932)" fill="#fff"/>
            <rect id="Rectangle_660" data-name="Rectangle 660" width="2.581" height="0.93" transform="translate(22.855 35.932)" fill="#fff"/>
            <rect id="Rectangle_661" data-name="Rectangle 661" width="2.583" height="0.93" transform="translate(24.83 35.932)" fill="#fff"/>
            <rect id="Rectangle_662" data-name="Rectangle 662" width="2.581" height="0.93" transform="translate(26.804 35.932)" fill="#fff"/>
            <path id="Path_815" data-name="Path 815" d="M71.489,132.97a1.684,1.684,0,0,1-.647.608l-4.005.7a2.155,2.155,0,0,1,.7-.57c1.311-.226,2.639-.473,3.95-.74" transform="translate(-37.071 -110.024)" fill="#fff"/>
            <path id="Path_816" data-name="Path 816" d="M70.9,147.67c0,.532-.283.8-.834.8a.728.728,0,0,1-.836-.816.742.742,0,0,1,.836-.834.847.847,0,0,1,.834.853m2.259-3.378h-1.2a2.353,2.353,0,0,1-1.9-.8,2.186,2.186,0,0,1-1.786.8H66.212v-.913h1.537q1.767,0,1.766-2.051v-2.334l-.3-2.392,1.461-.36v5.108c0,1.345.57,2.03,1.727,2.03h.76Z" transform="translate(-37.566 -107.429)" fill="#fff"/>
            <rect id="Rectangle_663" data-name="Rectangle 663" width="2.583" height="0.93" transform="translate(35.12 35.932)" fill="#fff"/>
            <rect id="Rectangle_664" data-name="Rectangle 664" width="2.581" height="0.93" transform="translate(37.094 35.932)" fill="#fff"/>
            <path id="Path_817" data-name="Path 817" d="M79.668,134.746c0,.533-.283.8-.836.8a.729.729,0,0,1-.836-.816.744.744,0,0,1,.836-.835.848.848,0,0,1,.836.855m-2.507,0a.709.709,0,0,1-.814.8c-.59,0-.875-.264-.875-.816s.285-.835.875-.835a.843.843,0,0,1,.814.855m2.924,7.1c0-1.974-1.139-3.095-2.507-3.095a2.208,2.208,0,0,0-1.709.778,3.294,3.294,0,0,0-.778,2.317,4.738,4.738,0,0,0,.513,2.334,2.225,2.225,0,0,0,2.013,1.083,2.119,2.119,0,0,0,1.917-1.158,4.424,4.424,0,0,0,.55-2.259m2.81,4.31h-3.7A9.475,9.475,0,0,1,77.579,146a8.738,8.738,0,0,1-1.594.152H72.13v-.913h3.324a3.837,3.837,0,0,1-1.635-3.265,3.77,3.77,0,1,1,7.538,0,3.781,3.781,0,0,1-1.669,3.265h3.208Z" transform="translate(-32.873 -109.293)" fill="#fff"/>
            <rect id="Rectangle_665" data-name="Rectangle 665" width="2.581" height="0.93" transform="translate(49.49 35.932)" fill="#fff"/>
            <rect id="Rectangle_666" data-name="Rectangle 666" width="2.581" height="0.93" transform="translate(51.464 35.932)" fill="#fff"/>
            <rect id="Rectangle_667" data-name="Rectangle 667" width="2.583" height="0.93" transform="translate(53.438 35.932)" fill="#fff"/>
            <rect id="Rectangle_668" data-name="Rectangle 668" width="2.581" height="0.93" transform="translate(55.412 35.932)" fill="#fff"/>
            <rect id="Rectangle_669" data-name="Rectangle 669" width="2.581" height="0.93" transform="translate(57.387 35.932)" fill="#fff"/>
            <path id="Path_818" data-name="Path 818" d="M88.544,132.97a1.664,1.664,0,0,1-.645.608l-4.005.7a2.135,2.135,0,0,1,.7-.57c1.311-.226,2.639-.473,3.948-.74" transform="translate(-23.546 -110.024)" fill="#fff"/>
            <path id="Path_819" data-name="Path 819" d="M88.374,134.746c0,.533-.283.8-.834.8a.728.728,0,0,1-.836-.816.743.743,0,0,1,.836-.835.846.846,0,0,1,.834.855m-2.5,0c0,.533-.283.8-.853.8a.729.729,0,0,1-.836-.816.744.744,0,0,1,.836-.835.85.85,0,0,1,.853.855m4.348,11.41h-1.2a2.358,2.358,0,0,1-1.9-.8,2.183,2.183,0,0,1-1.786.8H83.269v-.913h1.537q1.767,0,1.766-2.051v-2.334l-.3-2.392,1.463-.36v5.108c0,1.345.568,2.03,1.727,2.03h.76Z" transform="translate(-24.041 -109.293)" fill="#fff"/>
            <rect id="Rectangle_670" data-name="Rectangle 670" width="2.581" height="0.93" transform="translate(65.701 35.932)" fill="#fff"/>
            <rect id="Rectangle_671" data-name="Rectangle 671" width="2.581" height="0.93" transform="translate(67.676 35.932)" fill="#fff"/>
            <rect id="Rectangle_672" data-name="Rectangle 672" width="2.581" height="0.93" transform="translate(69.65 35.932)" fill="#fff"/>
            <rect id="Rectangle_673" data-name="Rectangle 673" width="2.583" height="0.93" transform="translate(71.624 35.932)" fill="#fff"/>
            <rect id="Rectangle_674" data-name="Rectangle 674" width="2.581" height="0.93" transform="translate(73.598 35.932)" fill="#fff"/>
            <path id="Path_820" data-name="Path 820" d="M109.148,144.292h-1.176a2.307,2.307,0,0,1-1.9-.8,2.232,2.232,0,0,1-1.823.8,2.99,2.99,0,0,1-2.62-1.558,2.165,2.165,0,0,1-2.239,1.558,3.1,3.1,0,0,1-2.544-1.424,2.206,2.206,0,0,1-.475.74,2.336,2.336,0,0,1-1.764.683H92.384v-.913h1.748q1.764,0,1.766-2.051l.018-3.986,1.121-.285v4.766A3.587,3.587,0,0,1,97,142.3a2.809,2.809,0,0,0,1.9,1.026c1.16,0,1.746-.665,1.746-2.013v-3.968l1.121-.285v5.128a2.787,2.787,0,0,0,2.031,1.139c1.139,0,1.709-.665,1.709-2.013v-2.316l-.323-2.392,1.463-.36v5.144c0,1.329.586,1.994,1.766,1.994h.739Z" transform="translate(-16.813 -107.429)" fill="#fff"/>
            <rect id="Rectangle_675" data-name="Rectangle 675" width="2.581" height="0.93" transform="translate(91.898 35.932)" fill="#fff"/>
            <rect id="Rectangle_676" data-name="Rectangle 676" width="2.581" height="0.93" transform="translate(93.872 35.932)" fill="#fff"/>
            <rect id="Rectangle_677" data-name="Rectangle 677" width="2.581" height="0.93" transform="translate(95.846 35.932)" fill="#fff"/>
            <rect id="Rectangle_678" data-name="Rectangle 678" width="2.583" height="0.93" transform="translate(97.82 35.932)" fill="#fff"/>
            <rect id="Rectangle_679" data-name="Rectangle 679" width="2.583" height="0.93" transform="translate(99.794 35.932)" fill="#fff"/>
            <rect id="Rectangle_680" data-name="Rectangle 680" width="2.583" height="0.93" transform="translate(101.769 35.932)" fill="#fff"/>
            <path id="Path_821" data-name="Path 821" d="M111.708,133.1c.115-.265.1-.418-.075-.457a.26.26,0,0,0-.342.133,5.054,5.054,0,0,1,.418.325m.683.626a1.655,1.655,0,0,1-.19.552l-.378-.307a2.347,2.347,0,0,1-1.386.875,8.072,8.072,0,0,1-1.614.152l-.038-.1c1.461-.321,2.334-.721,2.62-1.176-.437-.36-.645-.608-.645-.778a.649.649,0,0,1,.133-.36,1.093,1.093,0,0,1,.873-.57.5.5,0,0,1,.55.57,1.8,1.8,0,0,1-.19.778,1.568,1.568,0,0,1,.265.36" transform="translate(-3.808 -110.779)" fill="#fff"/>
            <path id="Path_822" data-name="Path 822" d="M116.28,142.972v-3.95l-.188-1.443a4.791,4.791,0,0,0-1.253-.208,2.39,2.39,0,0,0-2.126,1.083,4.316,4.316,0,0,0-.645,2.523c0,1.881.778,3.172,1.994,3.172a2.8,2.8,0,0,0,2.22-1.176m4.045.968h-1.576a2.663,2.663,0,0,1-1.9-.837,4.041,4.041,0,0,1-3.229,2.013,2.477,2.477,0,0,1-2.374-1.728,2.292,2.292,0,0,1-1.556.552h-1.576v-.913h1.065a1.539,1.539,0,0,0,1.707-1.707c.077-2.887,1.728-4.635,4.368-4.635a7.039,7.039,0,0,1,2.334.362l-.17,1.841v2.087q-.03,2.049,1.764,2.051h1.14Z" transform="translate(-4.337 -107.077)" fill="#fff"/>
            <rect id="Rectangle_681" data-name="Rectangle 681" width="2.583" height="0.93" transform="translate(115.512 35.932)" fill="#fff"/>
            <rect id="Rectangle_682" data-name="Rectangle 682" width="2.581" height="0.93" transform="translate(117.488 35.932)" fill="#fff"/>
            <rect id="Rectangle_683" data-name="Rectangle 683" width="2.581" height="0.93" transform="translate(119.462 35.932)" fill="#fff"/>
            <rect id="Rectangle_684" data-name="Rectangle 684" width="2.581" height="0.93" transform="translate(121.434 35.932)" fill="#fff"/>
            <rect id="Rectangle_685" data-name="Rectangle 685" width="2.581" height="0.93" transform="translate(123.409 35.932)" fill="#fff"/>
            <path id="Path_823" data-name="Path 823" d="M125.743,143.536a2.333,2.333,0,0,1-2.449,2.62h-3.17v-.911h2.715c1.2,0,1.786-.683,1.786-2.051v-6.607l-.3-2.334,1.424-.36Z" transform="translate(5.184 -109.293)" fill="#fff"/>
            <path id="Path_824" data-name="Path 824" d="M126.041,133.891l-.171,2.259v10.006h-1.139V136.15l-.266-2.126Z" transform="translate(8.626 -109.293)" fill="#fff"/>
            <path id="Path_825" data-name="Path 825" d="M141.16,133.891v10.973a5.493,5.493,0,0,1-1.424,3.97,5.152,5.152,0,0,1-3.95,1.5q-5.01,0-5.011-5.942v-3.3H131.9v3.227a6.826,6.826,0,0,0,1.065,3.986,3.695,3.695,0,0,0,5.9.1,6.3,6.3,0,0,0,1.178-3.91v-7.9l-.323-2.336Z" transform="translate(13.629 -109.293)" fill="#fff"/>
            <path id="Path_826" data-name="Path 826" d="M142.161,146.148h-1.632c-1.614,0-2.429-.875-2.429-2.62V136.5l-.3-2.257,1.443-.342v9.282c0,1.366.588,2.051,1.746,2.051h1.176Z" transform="translate(19.196 -109.285)" fill="#fff"/>
            <rect id="Rectangle_686" data-name="Rectangle 686" width="2.583" height="0.93" transform="translate(160.844 35.932)" fill="#fff"/>
            <rect id="Rectangle_687" data-name="Rectangle 687" width="2.583" height="0.93" transform="translate(162.819 35.932)" fill="#fff"/>
            <rect id="Rectangle_688" data-name="Rectangle 688" width="2.583" height="0.93" transform="translate(164.793 35.932)" fill="#fff"/>
            <rect id="Rectangle_689" data-name="Rectangle 689" width="2.583" height="0.93" transform="translate(166.766 35.932)" fill="#fff"/>
            <path id="Path_827" data-name="Path 827" d="M148.774,147.67c0,.532-.285.8-.853.8a.73.73,0,0,1-.837-.816.743.743,0,0,1,.837-.834.851.851,0,0,1,.853.853m-2.507,0c0,.532-.285.8-.834.8a.73.73,0,0,1-.837-.816.743.743,0,0,1,.837-.834.859.859,0,0,1,.834.853m4.956-3.378h-1.2a2.362,2.362,0,0,1-1.9-.8,2.182,2.182,0,0,1-1.784.8h-2.071v-.913h1.538q1.767,0,1.766-2.051v-2.334l-.3-2.392,1.461-.36v5.108c0,1.345.568,2.03,1.727,2.03h.76Z" transform="translate(24.334 -107.429)" fill="#fff"/>
            <rect id="Rectangle_690" data-name="Rectangle 690" width="2.581" height="0.93" transform="translate(175.082 35.932)" fill="#fff"/>
            <rect id="Rectangle_691" data-name="Rectangle 691" width="2.581" height="0.93" transform="translate(177.056 35.932)" fill="#fff"/>
            <rect id="Rectangle_692" data-name="Rectangle 692" width="2.581" height="0.93" transform="translate(179.03 35.932)" fill="#fff"/>
            <rect id="Rectangle_693" data-name="Rectangle 693" width="2.583" height="0.93" transform="translate(181.004 35.932)" fill="#fff"/>
            <rect id="Rectangle_694" data-name="Rectangle 694" width="2.583" height="0.93" transform="translate(182.978 35.932)" fill="#fff"/>
            <rect id="Rectangle_695" data-name="Rectangle 695" width="2.583" height="0.93" transform="translate(184.951 35.932)" fill="#fff"/>
            <path id="Path_828" data-name="Path 828" d="M160.34,147.872a.711.711,0,0,1-.818.8.728.728,0,0,1-.834-.816.741.741,0,0,1,.834-.834.844.844,0,0,1,.818.853m4.215-3.378H154.491v-.913l8.393-.018a14.1,14.1,0,0,0-2-4.083c-1.194-1.8-2.277-2.716-3.265-2.716-.7,0-1.251.572-1.251,1.54a3.581,3.581,0,0,0,.208,1.1l-1.063.152c.172-2.22,1.329-3.568,2.772-3.568,1.311,0,2.677,1.121,4.14,3.36a11.263,11.263,0,0,1,2.126,5.146" transform="translate(32.435 -107.631)" fill="#fff"/>
            <path id="Path_829" data-name="Path 829" d="M168.784,143.536a2.377,2.377,0,0,1-2.392,2.62h-4.784l.436-.911h3.835a1.945,1.945,0,0,0,.59-.1l-3.93-7.043-1.366-1.766h1.537l4.52,8.278a2.166,2.166,0,0,0,.416-1.424v-6.55l-.323-2.392,1.461-.36Z" transform="translate(37.734 -109.293)" fill="#fff"/>
            <rect id="Rectangle_696" data-name="Rectangle 696" width="205.88" height="0.84" transform="translate(0.421 45.218)" fill="#fff"/>
            <path id="Path_830" data-name="Path 830" d="M59.271,132.388H50.31l.21-.913h5.031l.038-.36v-3.093c0-1.843-.7-3.039-1.691-3.039a1.647,1.647,0,0,0-.778.208l.115-1.1a3.073,3.073,0,0,1,2.5,1.2,4.765,4.765,0,0,1,.988,3.075v3.113h2.544Z" transform="translate(-50.176 -117.065)" fill="#fff"/>
            <rect id="Rectangle_697" data-name="Rectangle 697" width="2.581" height="0.93" transform="translate(8.639 14.392)" fill="#fff"/>
            <rect id="Rectangle_698" data-name="Rectangle 698" width="2.581" height="0.93" transform="translate(10.613 14.392)" fill="#fff"/>
            <rect id="Rectangle_699" data-name="Rectangle 699" width="2.583" height="0.93" transform="translate(12.587 14.392)" fill="#fff"/>
            <rect id="Rectangle_700" data-name="Rectangle 700" width="2.583" height="0.93" transform="translate(14.561 14.392)" fill="#fff"/>
            <rect id="Rectangle_701" data-name="Rectangle 701" width="2.581" height="0.93" transform="translate(16.536 14.392)" fill="#fff"/>
            <rect id="Rectangle_702" data-name="Rectangle 702" width="2.58" height="0.93" transform="translate(18.511 14.392)" fill="#fff"/>
            <rect id="Rectangle_703" data-name="Rectangle 703" width="2.581" height="0.93" transform="translate(20.484 14.392)" fill="#fff"/>
            <path id="Path_831" data-name="Path 831" d="M66.8,135.657a.836.836,0,1,1-.836-.853.847.847,0,0,1,.836.853m1.026-6a2.331,2.331,0,0,1-2.431,2.621H62.81v-.913h2.107q1.767,0,1.768-2.051v-2.372l-.3-2.354,1.443-.362Zm-3.532,6a.845.845,0,1,1-.853-.853.85.85,0,0,1,.853.853" transform="translate(-40.429 -116.957)" fill="#fff"/>
            <path id="Path_832" data-name="Path 832" d="M68.3,121.877l-.171,2.26v10H66.987v-10l-.266-2.127Z" transform="translate(-37.163 -118.82)" fill="#fff"/>
            <path id="Path_833" data-name="Path 833" d="M71.9,122.73c0,.534-.285.8-.834.8a.731.731,0,0,1-.837-.818.744.744,0,0,1,.837-.836.847.847,0,0,1,.834.853m-.228,10.69a4.576,4.576,0,0,1-3.57,4.9l-.3-.513a4.16,4.16,0,0,0,2.184-1.764,3.862,3.862,0,0,0,.531-1.974v-5.223l-.3-2.392,1.463-.36Z" transform="translate(-36.306 -118.82)" fill="#fff"/>
            <path id="Path_834" data-name="Path 834" d="M79.671,126.79a.931.931,0,0,1-1.861,0,.919.919,0,0,1,.931-.929.956.956,0,0,1,.931.929m7.46,5.488H85.309a2.455,2.455,0,0,1-1.366-.36,4.954,4.954,0,0,1-5.334,4.534c-3.342,0-5.013-1.972-5.013-5.94v-3.3h1.119v3.227a6.832,6.832,0,0,0,1.063,3.988,3.7,3.7,0,0,0,5.906.1,6.306,6.306,0,0,0,1.176-3.91v-3.683l-.323-2.336,1.443-.36v5.164c0,1.309.588,1.974,1.764,1.974h1.386Z" transform="translate(-31.711 -116.956)" fill="#fff"/>
            <rect id="Rectangle_704" data-name="Rectangle 704" width="2.581" height="0.93" transform="translate(54.889 14.392)" fill="#fff"/>
            <rect id="Rectangle_705" data-name="Rectangle 705" width="2.581" height="0.93" transform="translate(56.863 14.392)" fill="#fff"/>
            <rect id="Rectangle_706" data-name="Rectangle 706" width="2.583" height="0.93" transform="translate(58.837 14.392)" fill="#fff"/>
            <rect id="Rectangle_707" data-name="Rectangle 707" width="2.583" height="0.93" transform="translate(60.811 14.392)" fill="#fff"/>
            <path id="Path_835" data-name="Path 835" d="M89.314,135.656a.845.845,0,1,1-.852-.853.874.874,0,0,1,.852.853m.932-6a2.326,2.326,0,0,1-2.449,2.62H85.253v-.909H87.34c1.2,0,1.786-.685,1.786-2.051v-2.374l-.3-2.354,1.424-.36Z" transform="translate(-22.467 -116.956)" fill="#fff"/>
            <path id="Path_836" data-name="Path 836" d="M100.505,132.388H91.546l.208-.913h5.029l.039-.36v-3.093c0-1.843-.7-3.039-1.689-3.039a1.647,1.647,0,0,0-.778.208l.113-1.1a3.076,3.076,0,0,1,2.507,1.2,4.765,4.765,0,0,1,.988,3.075v3.113h2.542Z" transform="translate(-17.477 -117.065)" fill="#fff"/>
            <rect id="Rectangle_708" data-name="Rectangle 708" width="2.581" height="0.93" transform="translate(82.573 14.392)" fill="#fff"/>
            <rect id="Rectangle_709" data-name="Rectangle 709" width="2.581" height="0.93" transform="translate(84.547 14.392)" fill="#fff"/>
            <rect id="Rectangle_710" data-name="Rectangle 710" width="2.581" height="0.93" transform="translate(86.521 14.392)" fill="#fff"/>
            <rect id="Rectangle_711" data-name="Rectangle 711" width="2.581" height="0.93" transform="translate(88.495 14.392)" fill="#fff"/>
            <rect id="Rectangle_712" data-name="Rectangle 712" width="2.581" height="0.93" transform="translate(90.469 14.392)" fill="#fff"/>
            <path id="Path_837" data-name="Path 837" d="M109.98,130.958v-3.95l-.19-1.443a4.79,4.79,0,0,0-1.253-.208,2.393,2.393,0,0,0-2.126,1.081,4.327,4.327,0,0,0-.645,2.524c0,1.881.778,3.172,1.992,3.172a2.8,2.8,0,0,0,2.223-1.176m4.043.968h-1.576a2.668,2.668,0,0,1-1.9-.836,4.043,4.043,0,0,1-3.229,2.012,2.478,2.478,0,0,1-2.374-1.728,2.3,2.3,0,0,1-1.556.552h-1.576v-.913h1.063a1.54,1.54,0,0,0,1.709-1.707c.077-2.888,1.73-4.635,4.366-4.635a6.989,6.989,0,0,1,2.336.362l-.17,1.841v2.087c-.018,1.368.568,2.051,1.766,2.051h1.139Z" transform="translate(-9.334 -116.604)" fill="#fff"/>
            <rect id="Rectangle_713" data-name="Rectangle 713" width="2.583" height="0.93" transform="translate(104.213 14.392)" fill="#fff"/>
            <rect id="Rectangle_714" data-name="Rectangle 714" width="2.583" height="0.93" transform="translate(106.186 14.392)" fill="#fff"/>
            <rect id="Rectangle_715" data-name="Rectangle 715" width="2.583" height="0.93" transform="translate(108.161 14.392)" fill="#fff"/>
            <path id="Path_838" data-name="Path 838" d="M123.47,132.48H111.662v-.913l9.435-.018a14.835,14.835,0,0,0-1.992-4.083c-1.2-1.8-2.3-2.715-3.285-2.715-.683,0-1.235.57-1.235,1.537a3.628,3.628,0,0,0,.21,1.1l-1.081.151c.17-2.22,1.329-3.568,2.79-3.568,1.234,0,2.507.986,3.853,2.942a15.986,15.986,0,0,1,2.261,4.633h.853Z" transform="translate(-1.526 -117.157)" fill="#fff"/>
            <rect id="Rectangle_716" data-name="Rectangle 716" width="2.583" height="0.93" transform="translate(121.545 14.392)" fill="#fff"/>
            <rect id="Rectangle_717" data-name="Rectangle 717" width="2.583" height="0.93" transform="translate(123.519 14.392)" fill="#fff"/>
            <rect id="Rectangle_718" data-name="Rectangle 718" width="2.583" height="0.93" transform="translate(125.493 14.392)" fill="#fff"/>
            <rect id="Rectangle_719" data-name="Rectangle 719" width="2.581" height="0.93" transform="translate(127.468 14.392)" fill="#fff"/>
            <path id="Path_839" data-name="Path 839" d="M129.928,126.37l-.188-1.443a4.8,4.8,0,0,0-1.253-.208,2.392,2.392,0,0,0-2.126,1.081,4.511,4.511,0,0,0-.628,2.544c0,1.881.76,3.19,1.974,3.19,1.6,0,2.392-1.042,2.392-3.113a16.141,16.141,0,0,0-.17-2.051m1.311-1.974-.152,1.859v2.926c0,2.182-1.273,3.265-3.815,3.265H122.43v-.913h2.942a4.416,4.416,0,0,1-.836-2.81,4.894,4.894,0,0,1,1.176-3.417,4.17,4.17,0,0,1,3.191-1.291,7.043,7.043,0,0,1,2.334.38" transform="translate(7.012 -117.124)" fill="#fff"/>
            <path id="Path_840" data-name="Path 840" d="M153.292,132.278h-1.178a2.3,2.3,0,0,1-1.9-.8,2.236,2.236,0,0,1-1.825.8,2.994,2.994,0,0,1-2.62-1.558,2.165,2.165,0,0,1-2.239,1.558,3.014,3.014,0,0,1-2.3-1.122,5.491,5.491,0,0,1-1.422,3.8,5.156,5.156,0,0,1-3.95,1.5c-3.34,0-5.013-1.972-5.013-5.94v-3.3h1.122v3.227a6.846,6.846,0,0,0,1.061,3.988,3.552,3.552,0,0,0,3.095,1.519,3.409,3.409,0,0,0,2.792-1.481,6.089,6.089,0,0,0,1.176-3.853v-5.278l1.139-.285v5.334a2.653,2.653,0,0,0,1.8.932c1.16,0,1.748-.665,1.748-2.013v-3.968l1.121-.285v5.126a2.781,2.781,0,0,0,2.03,1.14c1.14,0,1.71-.665,1.71-2.013V126.98l-.323-2.392,1.461-.36v5.144q0,1.993,1.766,1.994h.741Z" transform="translate(13.689 -116.956)" fill="#fff"/>
            <rect id="Rectangle_720" data-name="Rectangle 720" width="2.583" height="0.93" transform="translate(166.505 14.392)" fill="#fff"/>
            <rect id="Rectangle_721" data-name="Rectangle 721" width="2.581" height="0.93" transform="translate(168.479 14.392)" fill="#fff"/>
            <rect id="Rectangle_722" data-name="Rectangle 722" width="2.581" height="0.93" transform="translate(170.454 14.392)" fill="#fff"/>
            <path id="Path_841" data-name="Path 841" d="M152.188,130.772a1.584,1.584,0,0,1-.645.626l-4.005.7a2.146,2.146,0,0,1,.7-.59l3.946-.739" transform="translate(26.921 -111.767)" fill="#fff"/>
            <path id="Path_842" data-name="Path 842" d="M153.279,134.143h-1.2a2.359,2.359,0,0,1-1.9-.8,2.18,2.18,0,0,1-1.784.8h-2.069v-.913h1.535q1.77,0,1.768-2.051v-6.548l-.3-2.394,1.461-.36V131.2c0,1.346.57,2.03,1.727,2.03h.76Z" transform="translate(25.965 -118.82)" fill="#fff"/>
            <rect id="Rectangle_723" data-name="Rectangle 723" width="2.581" height="0.93" transform="translate(178.769 14.392)" fill="#fff"/>
            <rect id="Rectangle_724" data-name="Rectangle 724" width="2.581" height="0.93" transform="translate(180.743 14.392)" fill="#fff"/>
            <rect id="Rectangle_725" data-name="Rectangle 725" width="2.581" height="0.93" transform="translate(182.716 14.392)" fill="#fff"/>
            <rect id="Rectangle_726" data-name="Rectangle 726" width="2.583" height="0.93" transform="translate(184.69 14.392)" fill="#fff"/>
            <path id="Path_843" data-name="Path 843" d="M157.095,121.843a1.038,1.038,0,0,0-.4-.511,2.99,2.99,0,0,1-.38-.342,1.245,1.245,0,0,0-.455.816c0,.285.19.457.568.533.38.057.723-.19.667-.495m.606-.455a1.218,1.218,0,0,1,.02.267,1.439,1.439,0,0,1-1.425,1.251c-.586,0-.891-.285-.891-.853a1.822,1.822,0,0,1,.473-1.044c.212-.285.418-.552.647-.837a2.548,2.548,0,0,0,.55.495,1.775,1.775,0,0,1,.626.721" transform="translate(33.159 -120.172)" fill="#fff"/>
            <path id="Path_844" data-name="Path 844" d="M160.762,135.858a.73.73,0,0,1-.816.836.845.845,0,0,1,0-1.691.844.844,0,0,1,.816.855m5.391-3.378H154.345v-.913l9.436-.018a14.9,14.9,0,0,0-1.994-4.083c-1.2-1.8-2.3-2.715-3.285-2.715-.683,0-1.234.57-1.234,1.537a3.622,3.622,0,0,0,.208,1.1l-1.083.151c.172-2.22,1.33-3.568,2.792-3.568,1.234,0,2.507.986,3.855,2.942a16.071,16.071,0,0,1,2.259,4.633h.853Z" transform="translate(32.319 -117.157)" fill="#fff"/>
            <path id="Path_845" data-name="Path 845" d="M165.912,120.956a1.684,1.684,0,0,1-.647.608l-4.005.7a2.115,2.115,0,0,1,.7-.57c1.309-.228,2.639-.473,3.95-.74" transform="translate(37.802 -119.55)" fill="#fff"/>
            <path id="Path_846" data-name="Path 846" d="M168.207,126.37l-.19-1.443a4.777,4.777,0,0,0-1.251-.208,2.4,2.4,0,0,0-2.128,1.081,4.512,4.512,0,0,0-.626,2.544c0,1.881.758,3.19,1.974,3.19,1.6,0,2.392-1.042,2.392-3.113a16.481,16.481,0,0,0-.17-2.051m1.311-1.974-.152,1.859v2.926c0,2.182-1.271,3.265-3.815,3.265h-4.841v-.913h2.942a4.416,4.416,0,0,1-.836-2.81,4.886,4.886,0,0,1,1.176-3.417,4.168,4.168,0,0,1,3.191-1.291,7.035,7.035,0,0,1,2.334.38" transform="translate(37.366 -117.124)" fill="#fff"/>
          </g>
        </g>
      </g>
    </g>
  </g>
</svg>
