<svg xmlns="http://www.w3.org/2000/svg" width="38" height="37.131" viewBox="0 0 38 37.131">
  <g id="Сгруппировать_1216" data-name="Сгруппировать 1216" transform="translate(0.5 0.5)">
    <rect id="Прямоугольник_277" data-name="Прямоугольник 277" width="37" height="36.131" transform="translate(37 36.131) rotate(180)" fill="none" stroke="#6bbbe1" stroke-miterlimit="10" stroke-width="1"/>
    <path id="Контур_477" data-name="Контур 477" d="M1399.166,295.289a5.7,5.7,0,1,0-5.7-5.7A5.711,5.711,0,0,0,1399.166,295.289Zm0-10.194a4.489,4.489,0,1,1-4.489,4.49A4.491,4.491,0,0,1,1399.166,285.095Zm2.892,11.706h-5.784a7.383,7.383,0,0,0-7.384,7.384v9.64h20.55v-9.64A7.384,7.384,0,0,0,1402.058,296.8Zm6.164,15.809h-2.869v-8.758h-1.217v8.758h-10.059v-8.758h-1.214v8.758H1390.1v-8.425a6.177,6.177,0,0,1,6.17-6.167h5.784a6.173,6.173,0,0,1,6.164,6.167Z" transform="translate(-1380.665 -279.54)" fill="#6bbbe1"/>
  </g>
</svg>
